# 3ds Max Wavefront OBJ Exporter v0.97b - (c)2007 guruware
# File Created: 22.12.2018 18:11:58

mtllib church.mtl

#
# object Box03
#

v  -1.0674 0.0000 -1.3682
v  -1.0674 0.0000 -1.9154
v  1.0350 0.0000 -1.9154
v  -1.0674 0.0000 -0.8209
v  -1.0674 0.0000 -0.2736
v  -1.0674 0.0000 0.2736
v  -1.0674 0.0000 0.8209
v  -1.0674 0.0000 1.3682
v  -1.0674 0.0000 1.9154
v  1.0350 0.0000 -1.5150
v  1.0674 0.0000 0.7152
v  1.0674 0.0000 1.2728
v  1.0674 0.0000 1.9154
v  1.0674 0.0000 0.1577
v  1.0674 0.0000 -0.3999
v  1.0674 0.0000 -0.9575
v  1.0674 0.0000 -1.5150
v  0.0000 1.7522 2.0356
v  0.0000 1.7522 -2.0063
v  -1.1154 0.7147 -2.0063
v  -1.1154 0.7147 2.0356
v  1.0674 0.6552 1.9154
v  0.0000 1.6927 1.9154
v  -1.0674 0.6552 1.9154
v  1.1505 0.0000 1.2728
v  1.1505 0.6071 1.2728
v  1.1505 0.6071 1.9154
v  1.1505 0.0000 1.9154
v  -1.0674 0.6552 -1.9154
v  0.0000 1.6927 -1.9154
v  1.0350 0.6916 -1.9140
v  -1.1100 -0.0000 0.2736
v  -1.1100 0.6552 0.2736
v  -1.1100 0.6552 -0.2736
v  -1.1100 -0.0000 -0.2736
v  1.1154 0.7147 2.0356
v  1.1154 0.7147 1.9635
v  1.1154 0.7147 1.0948
v  1.0350 0.7895 -1.5150
v  1.1154 0.7147 -1.5150
v  1.0350 0.7895 -2.0063
v  0.0000 1.6927 2.0356
v  -1.1154 0.6552 2.0356
v  1.1154 0.6552 2.0356
v  1.0674 0.6552 -0.9575
v  1.0674 0.6552 -1.5150
v  1.1154 0.6552 -1.5150
v  1.0674 0.6552 -0.3999
v  1.0674 0.6552 0.1577
v  1.0674 0.6552 0.7152
v  1.0674 0.6552 1.2728
v  1.1154 0.6552 1.9635
v  1.1154 0.6552 1.0948
v  -1.1154 0.6552 -2.0063
v  0.0000 1.6927 -2.0063
v  -1.0674 0.6552 1.3682
v  -1.0674 0.6552 0.8209
v  -1.0674 0.6552 0.2736
v  -1.0674 0.6552 -0.2736
v  -1.0674 0.6552 -0.8209
v  -1.0674 0.6552 -1.3682
v  1.0350 0.7254 -2.0074
v  1.3517 0.5199 1.9635
v  1.3517 0.4604 1.9635
v  1.3517 0.4604 1.0948
v  1.3517 0.5199 1.0948
v  1.0350 0.6562 -1.5150
v  1.1100 0.0000 -0.9575
v  1.1100 0.6552 -0.9575
v  1.1100 0.6552 -0.3999
v  1.1100 0.0000 -0.3999
v  1.1100 0.6552 0.7152
v  1.1100 0.0000 0.7152
v  1.1100 0.0000 0.1577
v  1.1100 0.6552 0.1577
v  -1.1100 -0.0000 1.3682
v  -1.1100 0.6552 1.3682
v  -1.1100 0.6552 0.8209
v  -1.1100 -0.0000 0.8209
v  -1.1100 0.6552 -1.3682
v  -1.1100 -0.0000 -1.3682
v  -1.1100 -0.0000 -0.8209
v  -1.1100 0.6552 -0.8209
v  1.0346 0.0000 -1.5150
v  1.0346 0.0000 -2.0913
v  1.6631 0.0000 -2.0913
v  1.6631 0.0000 -1.5150
v  1.3131 2.7958 -1.7602
v  1.3847 2.7958 -1.7602
v  1.3847 2.7958 -1.8460
v  1.3131 2.7958 -1.8460
v  1.6631 1.0321 -1.5150
v  1.0346 1.0321 -1.5150
v  1.6631 1.0321 -2.0913
v  1.0346 1.0321 -2.0913
v  1.0346 2.0643 -1.5150
v  1.6631 2.0643 -1.5150
v  1.7458 2.0643 -1.4422
v  0.9520 2.0643 -1.4422
v  1.6631 2.0643 -2.0913
v  1.7458 2.0643 -2.1641
v  1.0346 2.0643 -2.0913
v  0.9520 2.0643 -2.1641
v  1.7458 2.1118 -1.4422
v  0.9520 2.1118 -1.4422
v  1.7458 2.1118 -2.1641
v  0.9520 2.1118 -2.1641
v  1.3704 2.5398 -1.7728
v  1.3273 2.5398 -1.7728
v  1.3704 2.5398 -1.8335
v  1.3273 2.5398 -1.8335
v  1.3704 2.7464 -1.7728
v  1.3273 2.7464 -1.7728
v  1.3704 2.7464 -1.8335
v  1.3273 2.7464 -1.8335
v  1.4117 2.7464 -1.7364
v  1.2860 2.7464 -1.7364
v  1.4117 2.7464 -1.8698
v  1.2860 2.7464 -1.8698
v  1.4117 2.7732 -1.7364
v  1.2860 2.7732 -1.7364
v  1.4117 2.7732 -1.8698
v  1.2860 2.7732 -1.8698
v  1.3847 2.7732 -1.7602
v  1.3131 2.7732 -1.7602
v  1.3847 2.7732 -1.8460
v  1.3131 2.7732 -1.8460
# 127 vertices

vn 0.0000 -1.0000 0.0000
vn -0.6811 0.7322 0.0000
vn 0.0000 0.0000 1.0000
vn 1.0000 0.0000 0.0000
vn 0.0000 0.0000 -1.0000
vn 0.0005 0.0003 -1.0000
vn 0.0034 0.0021 -1.0000
vn -1.0000 0.0000 0.0000
vn 0.6811 0.7322 -0.0000
vn 0.6811 0.7322 0.0000
vn 0.6970 -0.7171 -0.0000
vn 0.6970 -0.7171 0.0000
vn 0.6961 -0.7178 0.0140
vn 0.6572 -0.7065 0.2627
vn -0.6714 -0.6908 0.2684
vn -0.6734 -0.6947 0.2526
vn -0.6811 -0.7322 0.0000
vn -0.0000 -1.0000 0.0000
vn 0.6540 -0.6728 -0.3457
vn 0.6572 -0.6777 -0.3299
vn 0.6811 -0.7322 0.0000
vn -0.0000 0.0000 1.0000
vn 0.0000 -0.0000 1.0000
vn 0.0157 0.0180 -0.9997
vn -1.0000 -0.0000 0.0000
vn 0.5010 0.8654 -0.0000
vn 0.6360 0.7717 0.0000
vn 0.6360 0.7717 -0.0000
vn -0.6360 -0.7717 0.0000
vn -0.6360 -0.7717 -0.0000
vn -0.0000 -0.0000 -1.0000
vn -0.6952 -0.7188 -0.0000
vn -0.6952 -0.7188 0.0000
vn -0.6604 -0.7063 -0.2549
vn 0.0000 1.0000 0.0000
vn -1.0000 -0.0000 -0.0000
vn -0.0000 0.0000 -1.0000
vn 0.0000 0.6113 0.7914
vn 0.7518 0.6594 0.0000
vn 0.0000 0.6113 -0.7914
vn -0.0000 0.6113 -0.7914
vn -0.7518 0.6594 0.0000
vn -0.7518 0.6594 -0.0000
# 43 vertex normals

vt 0.1193 0.9815 0.0000
vt 0.0100 0.9815 0.0000
vt 0.0100 0.5616 0.0000
vt 0.2286 0.9815 0.0000
vt 0.3379 0.9815 0.0000
vt 0.4472 0.9815 0.0000
vt 0.5564 0.9815 0.0000
vt 0.6657 0.9815 0.0000
vt 0.7750 0.9815 0.0000
vt 0.0900 0.5616 0.0000
vt 0.5353 0.5552 0.0000
vt 0.6467 0.5552 0.0000
vt 0.7750 0.5552 0.0000
vt 0.4240 0.5552 0.0000
vt 0.3126 0.5552 0.0000
vt 0.2013 0.5552 0.0000
vt 0.0900 0.5552 0.0000
vt -0.3465 1.6095 0.0000
vt -0.9988 1.6095 0.0000
vt -0.9988 1.4109 0.0000
vt -0.3465 1.4109 0.0000
vt -0.9915 1.0048 0.0000
vt -0.5340 1.0059 0.0000
vt -0.5340 1.1492 0.0000
vt -0.7628 1.3777 0.0000
vt -0.9915 1.1492 0.0000
vt -0.1764 1.2350 0.0000
vt -0.1764 1.4219 0.0000
vt -0.3315 1.4219 0.0000
vt -0.3315 1.2350 0.0000
vt -0.9905 0.0053 0.0000
vt -0.5239 0.0053 0.0000
vt -0.5239 0.1481 0.0000
vt -0.7608 0.3744 0.0000
vt -0.9905 0.1561 0.0000
vt -0.1753 -0.9688 0.0000
vt -0.1753 -0.7852 0.0000
vt -0.3300 -0.7852 0.0000
vt -0.3300 -0.9688 0.0000
vt -0.9953 1.6266 0.0000
vt -0.9836 1.6266 0.0000
vt -0.8430 1.6266 0.0000
vt -0.4208 1.6411 0.0000
vt -0.4208 1.6266 0.0000
vt -0.9953 1.8275 0.0000
vt -0.3413 1.6411 0.0000
vt -0.3413 1.8275 0.0000
vt 1.0000 1.8320 0.0000
vt 1.3398 1.8320 0.0000
vt 1.3398 1.8750 0.0000
vt 0.9961 1.8750 0.0000
vt 0.9961 1.8320 0.0000
vt 0.2194 0.0668 0.0000
vt 0.1081 0.0668 0.0000
vt 0.1081 0.0572 0.0000
vt 0.3308 0.0668 0.0000
vt 0.4421 0.0668 0.0000
vt 0.5535 0.0668 0.0000
vt 0.6648 0.0668 0.0000
vt 0.8028 0.0572 0.0000
vt 0.6293 0.0572 0.0000
vt 0.8172 0.0572 0.0000
vt 0.7932 0.0668 0.0000
vt 1.3438 1.8750 0.0000
vt 1.0000 1.8750 0.0000
vt 1.3438 1.8320 0.0000
vt 0.6839 0.4931 0.0000
vt 0.7932 0.4931 0.0000
vt 0.8172 0.5027 0.0000
vt 0.5746 0.4931 0.0000
vt 0.4653 0.4931 0.0000
vt 0.3560 0.4931 0.0000
vt 0.2467 0.4931 0.0000
vt 0.1374 0.4931 0.0000
vt 0.0281 0.4931 0.0000
vt 0.0100 0.5027 0.0000
vt -0.9921 1.4118 0.0000
vt -0.9913 1.6095 0.0000
vt -0.9988 1.6096 0.0000
vt -0.9996 1.4115 0.0000
vt -0.9920 1.4116 0.0000
vt -0.9912 1.6095 0.0000
vt -0.9986 1.6096 0.0000
vt -0.9999 1.4115 0.0000
vt -0.9925 1.6086 0.0000
vt -0.9992 1.6087 0.0000
vt -1.0001 1.4108 0.0000
vt -0.9933 1.4129 0.0000
vt -0.9920 1.4119 0.0000
vt -0.9910 1.6078 0.0000
vt -0.9989 1.6084 0.0000
vt -0.9999 1.4114 0.0000
vt -0.9984 1.6003 0.0000
vt -0.3803 1.6003 0.0000
vt -0.3803 1.6094 0.0000
vt -0.9984 1.6094 0.0000
vt -0.6587 1.5929 0.0000
vt -0.6587 1.6085 0.0000
vt -0.9165 1.6085 0.0000
vt -0.9165 1.5929 0.0000
vt 0.7311 0.2991 0.0000
vt 0.7311 0.4274 0.0000
vt 0.7119 0.4274 0.0000
vt 0.7119 0.2991 0.0000
vt -0.5198 1.0059 0.0000
vt -0.5198 1.1386 0.0000
vt 0.6467 0.5386 0.0000
vt 0.7750 0.5386 0.0000
vt -0.0488 0.2348 0.0000
vt -0.0488 0.4244 0.0000
vt -0.0710 0.4239 0.0000
vt -0.0701 0.2348 0.0000
vt -0.7629 1.5871 0.0000
vt -0.7629 1.6089 0.0000
vt -0.7892 1.6089 0.0000
vt -0.7892 1.5871 0.0000
vt -0.8373 1.4500 0.0000
vt -0.9698 1.4500 0.0000
vt -0.9698 1.4139 0.0000
vt -0.8373 1.4139 0.0000
vt -0.6758 1.6094 0.0000
vt -0.6641 1.5859 0.0000
vt -0.5547 1.5859 0.0000
vt -0.5664 1.6094 0.0000
vt -0.6795 0.6731 0.0000
vt -0.4624 0.6731 0.0000
vt -0.4624 0.7321 0.0000
vt -0.6795 0.7321 0.0000
vt -0.5709 1.5930 0.0000
vt -0.5579 1.6087 0.0000
vt -0.6626 1.6087 0.0000
vt -0.6756 1.5930 0.0000
vt -0.3425 -0.9952 0.0000
vt -0.3425 -0.8097 0.0000
vt -0.4884 -0.8095 0.0000
vt -0.4929 -0.9953 0.0000
vt -0.4766 1.5938 0.0000
vt -0.4766 1.6094 0.0000
vt -0.9766 1.6094 0.0000
vt -0.9766 1.5938 0.0000
vt 0.3799 0.2698 0.0000
vt 0.3796 0.4079 0.0000
vt 0.2999 0.4008 0.0000
vt 0.2999 0.2698 0.0000
vt 0.0196 0.4558 0.0000
vt 0.0196 0.3250 0.0000
vt 0.0261 0.3250 0.0000
vt 0.0261 0.4560 0.0000
vt 0.3982 0.4146 0.0000
vt 0.3980 0.4274 0.0000
vt 0.2999 0.4274 0.0000
vt 0.0100 0.4677 0.0000
vt 0.0100 0.4558 0.0000
vt 0.0261 0.4826 0.0000
vt -0.0138 -0.7640 0.0000
vt -0.0138 -0.5787 0.0000
vt -0.1605 -0.5787 0.0000
vt -0.1605 -0.7640 0.0000
vt -0.0119 -0.9688 0.0000
vt -0.0119 -0.7853 0.0000
vt -0.1680 -0.7853 0.0000
vt -0.1680 -0.9688 0.0000
vt -0.1601 -0.5783 0.0000
vt -0.1643 -0.7639 0.0000
vt -0.0137 -0.7639 0.0000
vt -0.0137 -0.5783 0.0000
vt -0.3316 -0.7848 0.0000
vt -0.3316 -0.9688 0.0000
vt -0.1737 -0.9688 0.0000
vt -0.1737 -0.7848 0.0000
vt 0.2193 0.4826 0.0000
vt 0.1079 0.4826 0.0000
vt 0.1079 0.4741 0.0000
vt 0.2193 0.4741 0.0000
vt -0.4939 -0.8056 0.0000
vt -0.4939 -0.9952 0.0000
vt -0.4717 -0.9952 0.0000
vt -0.4717 -0.8056 0.0000
vt 0.2013 0.5467 0.0000
vt 0.3126 0.5467 0.0000
vt -0.0478 0.2348 0.0000
vt -0.0478 0.4244 0.0000
vt -0.0700 0.4244 0.0000
vt -0.0700 0.2348 0.0000
vt 0.2193 0.0462 0.0000
vt 0.1079 0.0462 0.0000
vt 0.1079 0.0377 0.0000
vt 0.2193 0.0377 0.0000
vt -0.0710 0.2343 0.0000
vt -0.0488 0.2343 0.0000
vt -0.0488 0.4239 0.0000
vt 0.4240 0.5467 0.0000
vt 0.5353 0.5467 0.0000
vt -0.0680 0.4244 0.0000
vt -0.0680 0.2348 0.0000
vt -0.1657 -0.7646 0.0000
vt -0.1657 -0.5771 0.0000
vt -0.0134 -0.5771 0.0000
vt -0.0134 -0.7646 0.0000
vt -0.1686 -0.9690 0.0000
vt -0.1686 -0.7851 0.0000
vt -0.0128 -0.7851 0.0000
vt -0.0128 -0.9690 0.0000
vt -0.4991 -0.9957 0.0000
vt -0.4991 -0.8086 0.0000
vt -0.3439 -0.8086 0.0000
vt -0.3439 -0.9957 0.0000
vt -0.5029 -0.6055 0.0000
vt -0.5029 -0.7929 0.0000
vt -0.3494 -0.7929 0.0000
vt -0.3494 -0.6055 0.0000
vt -0.3300 -0.7856 0.0000
vt -0.3300 -0.9684 0.0000
vt -0.1739 -0.9684 0.0000
vt -0.1739 -0.7856 0.0000
vt -0.0134 -0.7643 0.0000
vt -0.0134 -0.5791 0.0000
vt -0.1626 -0.5791 0.0000
vt -0.1626 -0.7643 0.0000
vt 0.4472 0.9900 0.0000
vt 0.3379 0.9900 0.0000
vt -0.0488 0.2354 0.0000
vt -0.0488 0.4250 0.0000
vt -0.0710 0.4250 0.0000
vt -0.0710 0.2354 0.0000
vt 0.7485 0.3181 0.0000
vt 0.7485 0.4274 0.0000
vt 0.7400 0.4274 0.0000
vt 0.7400 0.3181 0.0000
vt -0.0694 0.4245 0.0000
vt -0.0694 0.2349 0.0000
vt -0.0472 0.2349 0.0000
vt -0.0472 0.4245 0.0000
vt 0.6657 0.9900 0.0000
vt 0.5564 0.9900 0.0000
vt -0.0472 0.2358 0.0000
vt -0.0472 0.4254 0.0000
vt -0.0694 0.4254 0.0000
vt -0.0694 0.2358 0.0000
vt 0.0435 0.3733 0.0000
vt 0.0435 0.4826 0.0000
vt 0.0350 0.4826 0.0000
vt 0.0350 0.3733 0.0000
vt -0.0702 0.4254 0.0000
vt -0.0702 0.2358 0.0000
vt -0.0480 0.2358 0.0000
vt -0.0480 0.4254 0.0000
vt 0.2286 0.9900 0.0000
vt 0.1193 0.9900 0.0000
vt -0.0464 0.2358 0.0000
vt -0.0464 0.4254 0.0000
vt -0.0687 0.4254 0.0000
vt -0.0687 0.2358 0.0000
vt 0.2283 0.4741 0.0000
vt 0.3375 0.4741 0.0000
vt 0.3375 0.4826 0.0000
vt 0.2283 0.4826 0.0000
vt -0.0702 0.4245 0.0000
vt -0.0702 0.2349 0.0000
vt -0.0480 0.2349 0.0000
vt -0.0480 0.4245 0.0000
vt 0.1324 0.2743 0.0000
vt 0.1324 0.1592 0.0000
vt 0.2579 0.1592 0.0000
vt 0.2579 0.2743 0.0000
vt -0.3047 0.8438 0.0000
vt -0.3047 0.7383 0.0000
vt -0.1836 0.7383 0.0000
vt -0.1836 0.8438 0.0000
vt -0.0027 1.4419 0.0000
vt -0.0027 1.7112 0.0000
vt -0.1635 1.7112 0.0000
vt -0.1635 1.4419 0.0000
vt -0.0042 1.4420 0.0000
vt -0.0042 1.7106 0.0000
vt -0.1605 1.7106 0.0000
vt -0.1605 1.4420 0.0000
vt -0.1683 1.4418 0.0000
vt -0.1683 1.7111 0.0000
vt -0.3279 1.7111 0.0000
vt -0.3279 1.4418 0.0000
vt -0.0016 1.4425 0.0000
vt -0.0016 1.7115 0.0000
vt -0.1629 1.7115 0.0000
vt -0.1629 1.4425 0.0000
vt -0.8867 0.7891 0.0000
vt -0.7383 0.7891 0.0000
vt -0.7188 0.8086 0.0000
vt -0.9063 0.8086 0.0000
vt -0.7383 0.6523 0.0000
vt -0.7188 0.6328 0.0000
vt -0.8867 0.6523 0.0000
vt -0.9063 0.6328 0.0000
vt -0.9490 0.8784 0.0000
vt -0.7825 0.8784 0.0000
vt -0.7825 0.8960 0.0000
vt -0.9490 0.8960 0.0000
vt -0.7820 0.8961 0.0000
vt -0.9488 0.8959 0.0000
vt -0.9485 0.8789 0.0000
vt -0.7820 0.8786 0.0000
vt -0.7818 0.8955 0.0000
vt -0.9489 0.8955 0.0000
vt -0.9489 0.8804 0.0000
vt -0.7818 0.8804 0.0000
vt -0.9486 0.8804 0.0000
vt -0.7825 0.8795 0.0000
vt -0.7825 0.8951 0.0000
vt -0.9486 0.8960 0.0000
vt -0.9659 0.8796 0.0000
vt -0.7669 0.8796 0.0000
vt -0.8607 0.9996 0.0000
vt -0.8720 0.9996 0.0000
vt -0.9648 0.8806 0.0000
vt -0.7707 0.8806 0.0000
vt -0.8600 1.0000 0.0000
vt -0.8716 1.0000 0.0000
vt -0.9648 0.8811 0.0000
vt -0.7685 0.8811 0.0000
vt -0.8613 0.9979 0.0000
vt -0.8720 0.9979 0.0000
vt -0.5557 0.8801 0.0000
vt -0.7496 0.8801 0.0000
vt -0.6608 1.0005 0.0000
vt -0.6406 1.0005 0.0000
vt -0.0645 0.8202 0.0000
vt -0.0868 0.8202 0.0000
vt -0.0868 0.7224 0.0000
vt -0.0645 0.7224 0.0000
vt -0.0625 0.8203 0.0000
vt -0.0938 0.8203 0.0000
vt -0.0977 0.7227 0.0000
vt -0.0664 0.7227 0.0000
vt -0.0820 0.8203 0.0000
vt -0.0859 0.7227 0.0000
vt -0.0586 0.8203 0.0000
vt -0.0625 0.7227 0.0000
vt -0.1055 0.7813 0.0000
vt -0.1055 0.7969 0.0000
vt -0.1250 0.8203 0.0000
vt -0.1250 0.7617 0.0000
vt -0.0820 0.7969 0.0000
vt -0.0664 0.8203 0.0000
vt -0.0820 0.7813 0.0000
vt -0.0664 0.7617 0.0000
vt -0.1811 0.8164 0.0000
vt -0.3265 0.8164 0.0000
vt -0.3265 0.7739 0.0000
vt -0.1811 0.7739 0.0000
vt -0.1812 0.8160 0.0000
vt -0.3266 0.8160 0.0000
vt -0.3266 0.7757 0.0000
vt -0.1812 0.7757 0.0000
vt -0.1809 0.8164 0.0000
vt -0.3242 0.8164 0.0000
vt -0.3242 0.7755 0.0000
vt -0.1809 0.7755 0.0000
vt -0.1803 0.8152 0.0000
vt -0.3269 0.8152 0.0000
vt -0.3269 0.7749 0.0000
vt -0.1803 0.7749 0.0000
vt -0.1047 0.7804 0.0000
vt -0.1047 0.8203 0.0000
vt -0.1133 0.8097 0.0000
vt -0.1133 0.7858 0.0000
vt -0.1563 0.8203 0.0000
vt -0.1448 0.8097 0.0000
vt -0.1563 0.7804 0.0000
vt -0.1448 0.7858 0.0000
vt -0.2625 0.8436 0.0000
vt -0.2625 0.7337 0.0000
vt -0.1968 0.7337 0.0000
vt -0.1968 0.8436 0.0000
vt -0.0078 0.7461 0.0000
vt -0.1602 0.7461 0.0000
vt -0.1602 0.6992 0.0000
vt -0.0078 0.6992 0.0000
vt -0.2623 0.8432 0.0000
vt -0.2623 0.7333 0.0000
vt -0.1967 0.7333 0.0000
vt -0.1967 0.8432 0.0000
vt -0.0027 1.9805 0.0000
vt -0.1635 1.9805 0.0000
vt -0.0042 1.9793 0.0000
vt -0.1605 1.9793 0.0000
vt -0.1683 1.9805 0.0000
vt -0.3279 1.9805 0.0000
vt -0.0016 1.9805 0.0000
vt -0.1629 1.9805 0.0000
# 389 texture coords

o Box03
g Box03
usemtl 07___Default
s 2
f 1/1/1 2/2/1 3/3/1 4/4/1 
f 5/5/1 4/4/1 3/3/1 6/6/1 
f 7/7/1 6/6/1 3/3/1 8/8/1 
f 9/9/1 8/8/1 3/3/1 10/10/1 
f 11/11/1 12/12/1 13/13/1 14/14/1 
f 15/15/1 14/14/1 13/13/1 16/16/1 
f 17/17/1 16/16/1 13/13/1 10/10/1 
f 9/9/1 10/10/1 13/13/1 
s 4
f 18/18/2 19/19/2 20/20/2 21/21/2 
s 8
f 9/22/3 13/23/3 22/24/3 
f 9/22/3 22/24/3 23/25/3 
f 9/22/3 23/25/3 24/26/3 
s 16
f 25/27/4 26/28/4 27/29/4 28/30/4 
s 32
f 3/31/5 2/32/5 29/33/5 
f 3/31/5 29/33/5 30/34/6 
f 3/31/7 30/34/6 31/35/7 
s 64
f 32/36/8 33/37/8 34/38/8 35/39/8 
s 4
f 36/40/9 37/41/10 38/42/10 39/43/9 
f 38/42/10 40/44/10 39/43/9 
f 18/45/9 36/40/9 39/43/9 
f 39/43/9 41/46/10 19/47/9 
f 18/45/10 39/43/9 19/47/10 
s off
f 24/48/11 23/49/12 42/50/13 
f 42/50/13 43/51/14 24/48/14 
f 23/52/15 22/49/15 44/50/16 
f 44/50/16 42/51/17 23/52/17 
f 45/53/1 46/54/1 47/55/1 48/56/1 
f 49/57/1 48/56/1 47/55/1 50/58/1 
f 51/59/1 50/58/1 47/55/1 52/60/1 
f 47/55/1 53/61/4 52/60/1 
f 51/59/1 52/60/1 44/62/1 
f 22/63/18 51/59/1 44/62/18 
f 30/64/19 29/65/19 54/52/20 
f 54/52/20 55/66/21 30/64/21 
f 56/67/1 24/68/1 43/69/1 
f 57/70/1 56/67/1 43/69/1 
f 58/71/1 57/70/1 43/69/1 
f 59/72/1 58/71/1 43/69/1 
f 60/73/1 59/72/1 43/69/1 
f 61/74/1 60/73/1 43/69/1 
f 29/75/1 61/74/1 43/69/1 
f 29/75/1 43/69/1 54/76/1 
f 43/77/22 42/78/22 18/79/22 
f 18/79/23 21/80/23 43/77/23 
f 42/81/3 44/82/3 36/83/3 
f 36/83/3 18/84/3 42/81/3 
f 55/85/5 19/86/5 41/87/5 
f 41/87/24 62/88/24 55/85/24 
f 55/89/5 54/90/5 20/91/5 
f 20/91/5 19/92/5 55/89/5 
f 54/93/8 43/94/25 21/95/25 
f 21/95/8 20/96/8 54/93/8 
f 63/97/4 64/98/4 65/99/4 66/100/4 
f 51/101/26 22/102/26 27/103/26 
f 27/103/26 26/104/26 51/101/26 
f 22/24/3 13/23/3 28/105/3 
f 28/105/3 27/106/3 22/24/3 
f 13/13/1 12/12/1 25/107/1 
f 25/107/1 28/108/1 13/13/1 
f 12/109/5 51/110/5 26/111/5 
f 26/111/5 25/112/5 12/109/5 
f 36/113/4 44/114/4 52/115/4 
f 52/115/4 37/116/4 36/113/4 
f 38/117/27 37/118/27 63/119/28 
f 63/119/28 66/120/28 38/117/28 
f 37/121/3 52/122/3 64/123/3 
f 64/123/3 63/124/3 37/121/3 
f 52/125/29 53/126/29 65/127/30 
f 65/127/29 64/128/29 52/125/29 
f 53/129/31 38/130/31 66/131/31 
f 66/131/31 65/132/31 53/129/31 
s 16
f 15/133/4 48/134/4 49/135/4 
f 49/135/4 14/136/4 15/133/4 
s off
f 38/137/4 53/138/4 47/139/4 
f 47/139/4 40/140/4 38/137/4 
f 31/64/32 30/51/33 55/52/33 
f 55/52/34 62/66/34 31/64/34 
s 64
f 3/141/4 31/142/4 67/143/4 
f 67/143/4 10/144/4 3/141/4 
s 8
f 46/145/5 17/146/5 10/147/5 
f 10/147/5 67/148/5 46/145/5 
s 64
f 62/149/4 41/150/4 39/151/4 
f 31/142/4 62/149/4 39/151/4 
f 31/142/4 39/151/4 67/143/4 
s 8
f 40/152/5 47/153/5 46/145/5 
f 39/154/5 40/152/5 46/145/5 
f 67/148/5 39/154/5 46/145/5 
s 16
f 17/155/4 46/156/4 45/157/4 
f 45/157/4 16/158/4 17/155/4 
f 68/159/4 69/160/4 70/161/4 71/162/4 
f 51/163/4 12/164/4 11/165/4 
f 11/165/4 50/166/4 51/163/4 
f 72/167/4 73/168/4 74/169/4 75/170/4 
s off
f 45/171/35 48/172/35 70/173/35 
f 70/173/35 69/174/35 45/171/35 
f 48/175/3 15/176/3 71/177/3 
f 71/177/3 70/178/3 48/175/3 
f 15/15/1 16/16/1 68/179/1 
f 68/179/1 71/180/1 15/15/1 
f 16/181/5 45/182/5 69/183/5 
f 69/183/5 68/184/5 16/181/5 
f 49/185/35 50/186/35 72/187/35 
f 72/187/35 75/188/35 49/185/35 
f 50/111/3 11/189/3 73/190/3 
f 73/190/3 72/191/3 50/111/3 
f 11/11/1 14/14/1 74/192/1 
f 74/192/1 73/193/1 11/11/1 
f 14/181/5 49/182/5 75/194/5 
f 75/194/5 74/195/5 14/181/5 
s 64
f 9/196/25 24/197/25 56/198/25 
f 56/198/25 8/199/25 9/196/25 
f 76/200/8 77/201/8 78/202/8 79/203/8 
f 7/204/25 57/205/25 58/206/25 
f 58/206/25 6/207/25 7/204/25 
f 29/208/25 2/209/25 1/210/25 
f 1/210/25 61/211/25 29/208/25 
f 80/212/8 81/213/8 82/214/8 83/215/8 
f 60/216/36 4/217/25 5/218/25 
f 5/218/36 59/219/25 60/216/25 
s off
f 5/5/1 6/6/1 32/220/1 
f 32/220/1 35/221/1 5/5/1 
f 6/222/23 58/223/23 33/224/23 
f 33/224/23 32/225/23 6/222/23 
f 58/226/35 59/227/35 34/228/35 
f 34/228/35 33/229/35 58/226/35 
f 59/230/5 5/231/37 35/232/37 
f 35/232/5 34/233/5 59/230/5 
f 7/7/1 8/8/1 76/234/1 
f 76/234/1 79/235/1 7/7/1 
f 8/236/23 56/237/23 77/238/23 
f 77/238/23 76/239/23 8/236/23 
f 56/240/35 57/241/35 78/242/35 
f 78/242/35 77/243/35 56/240/35 
f 57/244/5 7/245/37 79/246/37 
f 79/246/5 78/247/5 57/244/5 
f 1/1/1 4/4/1 82/248/1 
f 82/248/1 81/249/1 1/1/1 
f 4/250/3 60/251/3 83/252/3 
f 83/252/3 82/253/3 4/250/3 
f 60/254/35 61/255/35 80/256/35 
f 80/256/35 83/257/35 60/254/35 
f 61/258/5 1/259/37 81/260/37 
f 81/260/5 80/261/5 61/258/5 
s 2
f 84/262/1 85/263/1 86/264/1 87/265/1 
s 4
f 88/266/35 89/267/35 90/268/35 91/269/35 
s 8
f 87/270/3 92/271/3 93/272/3 
f 93/272/3 84/273/3 87/270/3 
s 16
f 86/274/4 94/275/4 92/276/4 
f 92/276/4 87/277/4 86/274/4 
s 32
f 85/278/5 95/279/5 94/280/5 
f 94/280/5 86/281/5 85/278/5 
s 64
f 84/282/8 93/283/8 95/284/8 
f 95/284/8 85/285/8 84/282/8 
s off
f 96/286/1 97/287/1 98/288/1 99/289/1 
f 97/287/1 100/290/1 101/291/1 98/288/1 
f 100/290/1 102/292/1 103/293/1 101/291/1 
f 102/292/1 96/286/1 99/289/1 103/293/1 
f 99/294/3 98/295/3 104/296/3 
f 104/296/3 105/297/3 99/294/3 
f 98/298/4 101/299/4 106/300/4 
f 106/300/4 104/301/4 98/298/4 
f 101/302/5 103/303/5 107/304/5 
f 107/304/5 106/305/5 101/302/5 
f 103/306/8 99/307/8 105/308/8 
f 105/308/8 107/309/8 103/306/8 
f 105/310/38 104/311/38 108/312/38 
f 108/312/38 109/313/38 105/310/38 
f 104/314/39 106/315/39 110/316/39 
f 110/316/39 108/317/39 104/314/39 
f 106/318/40 107/319/40 111/320/41 
f 111/320/41 110/321/40 106/318/40 
f 107/322/42 105/323/42 109/324/43 
f 109/324/42 111/325/42 107/322/43 
f 109/326/3 108/327/3 112/328/3 
f 112/328/3 113/329/3 109/326/3 
f 108/330/4 110/331/4 114/332/4 
f 114/332/4 112/333/4 108/330/4 
f 110/330/5 111/334/5 115/335/5 
f 115/335/5 114/333/5 110/330/5 
f 111/336/8 109/331/8 113/332/8 
f 113/332/8 115/337/8 111/336/8 
f 113/338/1 112/339/1 116/340/1 
f 116/340/1 117/341/1 113/338/1 
f 112/339/1 114/342/1 118/343/1 
f 118/343/1 116/340/1 112/339/1 
f 114/342/1 115/344/1 119/345/1 
f 119/345/1 118/343/1 114/342/1 
f 115/344/1 113/338/1 117/341/1 
f 117/341/1 119/345/1 115/344/1 
f 117/346/3 116/347/3 120/348/3 
f 120/348/3 121/349/3 117/346/3 
f 116/350/4 118/351/4 122/352/4 
f 122/352/4 120/353/4 116/350/4 
f 118/354/5 119/355/5 123/356/5 
f 123/356/5 122/357/5 118/354/5 
f 119/358/8 117/359/8 121/360/8 
f 121/360/8 123/361/8 119/358/8 
f 121/362/35 120/363/35 124/364/35 
f 124/364/35 125/365/35 121/362/35 
f 120/363/35 122/366/35 126/367/35 
f 126/367/35 124/364/35 120/363/35 
f 122/366/35 123/368/35 127/369/35 
f 127/369/35 126/367/35 122/366/35 
f 123/368/35 121/362/35 125/365/35 
f 125/365/35 127/369/35 123/368/35 
f 125/370/3 124/371/3 89/372/3 
f 89/372/3 88/373/3 125/370/3 
f 124/374/4 126/375/4 90/376/4 
f 90/376/4 89/377/4 124/374/4 
f 126/378/5 127/379/5 91/380/5 
f 91/380/5 90/381/5 126/378/5 
f 127/374/8 125/375/8 88/376/8 
f 88/376/8 91/377/8 127/374/8 
s 8
f 97/382/3 96/383/3 93/272/3 
f 93/272/3 92/271/3 97/382/3 
s 16
f 100/384/4 97/385/4 92/276/4 
f 92/276/4 94/275/4 100/384/4 
s 32
f 102/386/5 100/387/5 94/280/5 
f 94/280/5 95/279/5 102/386/5 
s 64
f 96/388/8 102/389/8 95/284/8 
f 95/284/8 93/283/8 96/388/8 
# 25 polygons - 196 triangles

