# 3ds Max Wavefront OBJ Exporter v0.97b - (c)2007 guruware
# File Created: 24.12.2018 15:29:15

newmtl torch_mat
	Ns 3.1699
	Ni 1.5000
	d 1.0000
	Tr 0.0000
	Tf 1.0000 1.0000 1.0000 
	illum 2
	Ka 0.0000 0.0000 0.0000
	Kd 0.8000 0.8000 0.8000
	Ks 0.5000 0.5000 0.5000
	Ke 0.0000 0.0000 0.0000
	map_Ka maps\texture_torch.bmp
	map_Kd maps\texture_torch.bmp
