# 3ds Max Wavefront OBJ Exporter v0.97b - (c)2007 guruware
# File Created: 24.12.2018 15:29:15

mtllib torch.mtl

#
# object vatra
#

v  -0.0870 -0.0435 0.1432
v  -0.0870 -0.0168 0.1586
v  -0.0682 -0.0246 0.1586
v  -0.1059 -0.0246 0.1586
v  -0.1137 -0.0435 0.1586
v  -0.1059 -0.0623 0.1586
v  -0.0870 -0.0701 0.1586
v  -0.0682 -0.0623 0.1586
v  -0.0604 -0.0435 0.1586
v  -0.0870 -0.0234 0.2126
v  -0.0729 -0.0293 0.2126
v  -0.1012 -0.0293 0.2126
v  -0.1071 -0.0435 0.2126
v  -0.1012 -0.0577 0.2126
v  -0.0870 -0.0635 0.2126
v  -0.0729 -0.0577 0.2126
v  -0.0670 -0.0435 0.2126
v  -0.0870 -0.0435 0.2757
# 18 vertices

vn -0.0000 -1.0000 -0.0000
vn 0.0000 -0.9970 -0.0771
vn 0.0545 -0.9970 -0.0545
vn -0.0545 -0.9970 -0.0545
vn -0.0771 -0.9970 0.0000
vn -0.0545 -0.9970 0.0545
vn -0.0000 -0.9970 0.0771
vn 0.0545 -0.9970 0.0545
vn 0.0771 -0.9970 -0.0000
vn 0.2930 0.6432 -0.7074
vn -0.0000 0.8182 -0.5749
vn 0.4065 0.8182 -0.4065
vn -0.2930 0.6432 -0.7074
vn -0.4065 0.8182 -0.4065
vn -0.7074 0.6432 -0.2930
vn -0.5749 0.8182 0.0000
vn -0.7074 0.6432 0.2930
vn -0.4065 0.8182 0.4065
vn -0.2930 0.6432 0.7074
vn -0.0000 0.8182 0.5749
vn 0.2930 0.6432 0.7074
vn 0.4065 0.8182 0.4065
vn 0.7074 0.6432 0.2930
vn 0.5749 0.8182 -0.0000
vn 0.7074 0.6432 -0.2930
vn -0.0000 1.0000 -0.0000
# 26 vertex normals

vt 0.3575 0.0161 0.0000
vt 0.1838 0.2012 0.0000
vt 0.0981 0.2012 0.0000
vt 0.2718 0.2012 0.0000
vt 0.3597 0.2012 0.0000
vt 0.4477 0.2012 0.0000
vt 0.5356 0.2012 0.0000
vt 0.6236 0.2012 0.0000
vt 0.7038 0.2012 0.0000
vt 0.0124 0.2023 0.0000
vt 0.1838 0.5265 0.0000
vt 0.1025 0.5210 0.0000
vt 0.2718 0.5265 0.0000
vt 0.3597 0.5265 0.0000
vt 0.4477 0.5265 0.0000
vt 0.5356 0.5265 0.0000
vt 0.6236 0.5265 0.0000
vt 0.7005 0.5298 0.0000
vt 0.0124 0.5188 0.0000
vt 0.3642 0.9293 0.0000
vt 0.7797 0.5320 0.0000
# 21 texture coords

o vatra
g vatra
usemtl torch_mat
s off
f 1/1/1 2/2/2 3/3/3 
f 1/1/1 4/4/4 2/2/2 
f 1/1/1 5/5/5 4/4/4 
f 1/1/1 6/6/6 5/5/5 
f 1/1/1 7/7/7 6/6/6 
f 1/1/1 8/8/8 7/7/7 
f 1/1/1 9/9/9 8/8/8 
f 1/1/1 3/3/3 9/10/9 
f 3/3/10 2/2/10 10/11/11 11/12/12 
f 2/2/13 4/4/13 12/13/14 10/11/11 
f 4/4/15 5/5/15 13/14/16 12/13/14 
f 5/5/17 6/6/17 14/15/18 13/14/16 
f 6/6/19 7/7/19 15/16/20 14/15/18 
f 7/7/21 8/8/21 16/17/22 15/16/20 
f 8/8/23 9/9/23 17/18/24 16/17/22 
f 9/10/25 3/3/25 11/12/12 17/19/24 
f 11/12/12 10/11/11 18/20/26 
f 10/11/11 12/13/14 18/20/26 
f 12/13/14 13/14/16 18/20/26 
f 13/14/16 14/15/18 18/20/26 
f 14/15/18 15/16/20 18/20/26 
f 15/16/20 16/17/22 18/20/26 
f 16/17/22 17/18/24 18/20/26 
f 17/18/24 11/21/12 18/20/26 
# 8 polygons - 16 triangles

#
# object iskra1
#

v  -0.0912 -0.0521 0.2904
v  -0.0943 -0.0563 0.3037
v  -0.0943 -0.0480 0.3037
v  -0.0868 -0.0521 0.3037
v  -0.0912 -0.0521 0.3243
# 5 vertices

vn -0.8806 -0.4739 -0.0000
vn 0.4479 -0.3505 0.8225
vn 0.4479 -0.3505 -0.8225
vn -0.9441 0.3295 -0.0000
vn 0.4647 0.2359 0.8535
vn 0.4647 0.2359 -0.8535
# 6 vertex normals

vt 0.0646 0.7138 0.0000
vt 0.0955 0.8472 0.0000
vt 0.0076 0.8472 0.0000
vt 0.1136 0.7116 0.0000
vt 0.1708 0.8461 0.0000
vt 0.0947 0.8461 0.0000
vt 0.1679 0.7103 0.0000
vt 0.2474 0.8478 0.0000
vt 0.1713 0.8478 0.0000
vt 0.0748 0.9827 0.0000
vt 0.1146 0.9836 0.0000
vt 0.1810 0.9823 0.0000
# 12 texture coords

o iskra1
g iskra1
usemtl torch_mat
s off
f 19/22/27 20/23/27 21/24/27 
f 19/25/28 22/26/28 20/27/28 
f 19/28/29 21/29/29 22/30/29 
f 21/24/30 20/23/30 23/31/30 
f 20/27/31 22/26/31 23/32/31 
f 22/30/32 21/29/32 23/33/32 
# 0 polygons - 6 triangles

#
# object postolje
#

v  -0.0628 -0.0258 0.1339
v  -0.0778 -0.0149 0.1339
v  -0.0778 -0.0149 0.1539
v  -0.0628 -0.0258 0.1539
v  -0.0963 -0.0149 0.1339
v  -0.0963 -0.0149 0.1539
v  -0.1113 -0.0258 0.1339
v  -0.1113 -0.0258 0.1539
v  -0.1170 -0.0435 0.1339
v  -0.1170 -0.0435 0.1539
v  -0.1113 -0.0611 0.1339
v  -0.1113 -0.0611 0.1539
v  -0.0963 -0.0720 0.1339
v  -0.0963 -0.0720 0.1539
v  -0.0778 -0.0720 0.1339
v  -0.0778 -0.0720 0.1539
v  -0.0628 -0.0611 0.1339
v  -0.0628 -0.0611 0.1539
v  -0.0570 -0.0435 0.1339
v  -0.0570 -0.0435 0.1539
v  -0.0758 -0.0369 0.0572
v  -0.0831 -0.0328 0.0516
v  -0.0902 -0.0328 0.0447
v  -0.0951 -0.0369 0.0391
v  -0.0969 -0.0435 0.0369
v  -0.0951 -0.0500 0.0391
v  -0.0902 -0.0541 0.0447
v  -0.0831 -0.0541 0.0516
v  -0.0758 -0.0500 0.0572
v  -0.0736 -0.0435 0.0594
v  0.0115 -0.0328 0.0447
v  0.0115 -0.0369 0.0391
v  0.0115 -0.0328 0.0516
v  0.0115 -0.0369 0.0572
v  0.0115 -0.0435 0.0594
v  0.0115 -0.0500 0.0572
v  0.0115 -0.0541 0.0516
v  0.0115 -0.0541 0.0447
v  0.0115 -0.0500 0.0391
v  0.0115 -0.0435 0.0370
v  0.0115 -0.0133 0.0384
v  0.0115 -0.0248 0.0225
v  0.0115 -0.0133 0.0580
v  0.0115 -0.0248 0.0739
v  0.0115 -0.0435 0.0799
v  0.0115 -0.0621 0.0739
v  0.0115 -0.0737 0.0580
v  0.0115 -0.0737 0.0384
v  0.0115 -0.0621 0.0225
v  0.0115 -0.0435 0.0164
v  0.0172 -0.0133 0.0384
v  0.0172 -0.0248 0.0225
v  0.0172 -0.0133 0.0580
v  0.0172 -0.0248 0.0739
v  0.0172 -0.0435 0.0799
v  0.0172 -0.0621 0.0739
v  0.0172 -0.0737 0.0580
v  0.0172 -0.0737 0.0384
v  0.0172 -0.0621 0.0225
v  0.0172 -0.0435 0.0164
# 60 vertices

vn 0.5874 -0.1059 -0.8024
vn 0.5878 0.0000 -0.8090
vn 0.0277 -0.1024 -0.9944
vn -0.0000 0.0000 -1.0000
vn -0.5738 -0.0978 -0.8131
vn -0.5878 0.0000 -0.8090
vn -0.9457 -0.0976 -0.3099
vn -0.9511 -0.0000 -0.3090
vn -0.9457 -0.0976 0.3099
vn -0.9511 0.0000 0.3090
vn -0.5738 -0.0978 0.8131
vn -0.5878 0.0000 0.8090
vn 0.0277 -0.1024 0.9944
vn 0.0000 0.0000 1.0000
vn 0.5874 -0.1059 0.8024
vn 0.5878 0.0000 0.8090
vn 0.9482 -0.1027 0.3005
vn 0.9511 -0.0000 0.3090
vn 0.9482 -0.1027 -0.3005
vn 0.9511 -0.0000 -0.3090
vn 0.5803 -0.2105 -0.7867
vn -0.5542 -0.1946 -0.8093
vn -0.9314 -0.1943 -0.3079
vn -0.9314 -0.1943 0.3079
vn -0.5542 -0.1946 0.8093
vn 0.5803 -0.2105 0.7867
vn 0.9353 -0.2044 0.2888
vn 0.9353 -0.2044 -0.2888
vn 0.0000 -0.5878 -0.8090
vn -0.0000 0.5878 -0.8090
vn 0.0000 0.9511 -0.3090
vn 0.0000 0.9511 0.3090
vn 0.0000 0.5878 0.8090
vn 0.0000 -0.0000 1.0000
vn -0.0000 -0.5878 0.8090
vn 0.0002 -0.9503 0.3113
vn 0.0002 -0.9503 -0.3113
vn -1.0000 -0.0001 0.0000
vn -1.0000 -0.0000 0.0000
vn -1.0000 -0.0000 -0.0000
vn -1.0000 -0.0001 -0.0000
vn 0.0000 0.5878 -0.8090
vn -0.0000 0.9511 -0.3090
vn -0.0000 0.9511 0.3090
vn -0.0000 0.5878 0.8090
vn -0.0000 0.0000 1.0000
vn 0.0000 -0.5878 0.8090
vn 0.0001 -0.9511 0.3090
vn 0.0001 -0.9511 -0.3090
# 49 vertex normals

vt 0.7916 0.1141 0.0000
vt 0.8388 0.1139 0.0000
vt 0.8386 0.0156 0.0000
vt 0.7914 0.0157 0.0000
vt 0.8860 0.1138 0.0000
vt 0.8858 0.0155 0.0000
vt 0.9333 0.1137 0.0000
vt 0.9330 0.0154 0.0000
vt 0.9805 0.1136 0.0000
vt 0.9803 0.0153 0.0000
vt 0.9335 0.1137 0.0000
vt 0.9332 0.0154 0.0000
vt 0.8863 0.1139 0.0000
vt 0.8860 0.0155 0.0000
vt 0.8390 0.1140 0.0000
vt 0.8388 0.0157 0.0000
vt 0.7918 0.1141 0.0000
vt 0.7915 0.0158 0.0000
vt 0.7446 0.1143 0.0000
vt 0.7443 0.0160 0.0000
vt 0.7444 0.1142 0.0000
vt 0.7441 0.0159 0.0000
vt 0.7852 0.5029 0.0000
vt 0.8371 0.5459 0.0000
vt 0.8853 0.5857 0.0000
vt 0.9303 0.6170 0.0000
vt 0.9818 0.6296 0.0000
vt 0.9307 0.6171 0.0000
vt 0.8857 0.5858 0.0000
vt 0.8375 0.5460 0.0000
vt 0.7856 0.5029 0.0000
vt 0.7457 0.4808 0.0000
vt 0.7453 0.4807 0.0000
vt 0.8358 0.7534 0.0000
vt 0.8555 0.7805 0.0000
vt 0.9503 0.7497 0.0000
vt 0.8944 0.6728 0.0000
vt 0.8555 0.8140 0.0000
vt 0.9503 0.8448 0.0000
vt 0.8358 0.8411 0.0000
vt 0.8944 0.9217 0.0000
vt 0.8039 0.8515 0.0000
vt 0.8039 0.9511 0.0000
vt 0.7721 0.8411 0.0000
vt 0.7135 0.9217 0.0000
vt 0.7524 0.8140 0.0000
vt 0.6576 0.8448 0.0000
vt 0.7524 0.7805 0.0000
vt 0.6576 0.7497 0.0000
vt 0.7721 0.7534 0.0000
vt 0.7135 0.6728 0.0000
vt 0.8039 0.7430 0.0000
vt 0.8039 0.6434 0.0000
vt 0.9893 0.7370 0.0000
vt 0.9185 0.6396 0.0000
vt 0.9893 0.8575 0.0000
vt 0.9185 0.9549 0.0000
vt 0.8039 0.9921 0.0000
vt 0.6894 0.9549 0.0000
vt 0.6186 0.8575 0.0000
vt 0.6186 0.7370 0.0000
vt 0.6894 0.6396 0.0000
vt 0.8039 0.6024 0.0000
# 63 texture coords

o postolje
g postolje
usemtl torch_mat
s off
f 24/34/33 25/35/33 26/36/34 27/37/34 
f 25/35/35 28/38/35 29/39/36 26/36/36 
f 28/38/37 30/40/37 31/41/38 29/39/38 
f 30/40/39 32/42/39 33/43/40 31/41/40 
f 32/42/41 34/44/41 35/45/42 33/43/42 
f 34/44/43 36/46/43 37/47/44 35/45/44 
f 36/46/45 38/48/45 39/49/46 37/47/46 
f 38/48/47 40/50/47 41/51/48 39/49/48 
f 40/50/49 42/52/49 43/53/50 41/51/50 
f 42/54/51 24/34/51 27/37/52 43/55/52 
f 25/35/33 24/34/33 44/56/53 45/57/53 
f 28/38/35 25/35/35 45/57/35 46/58/35 
f 30/40/37 28/38/37 46/58/54 47/59/54 
f 32/42/39 30/40/39 47/59/55 48/60/55 
f 34/44/41 32/42/41 48/60/56 49/61/56 
f 36/46/43 34/44/43 49/61/57 50/62/57 
f 38/48/45 36/46/45 50/62/45 51/63/45 
f 40/50/47 38/48/47 51/63/58 52/64/58 
f 42/52/49 40/50/49 52/64/59 53/65/59 
f 24/34/51 42/54/51 53/66/60 44/56/60 
f 47/61/61 46/62/61 54/46/61 55/44/61 
f 46/62/35 45/63/35 56/48/36 54/46/36 
f 45/63/62 44/64/62 57/50/62 56/48/62 
f 44/64/63 53/65/63 58/52/63 57/50/63 
f 53/66/64 52/56/64 59/34/64 58/54/64 
f 52/56/65 51/57/65 60/35/65 59/34/65 
f 51/57/45 50/58/45 61/38/66 60/35/66 
f 50/58/67 49/59/67 62/40/67 61/38/67 
f 49/59/68 48/60/68 63/42/68 62/40/68 
f 48/60/69 47/61/69 55/44/69 63/42/69 
f 55/67/70 54/68/71 64/69/71 65/70/70 
f 54/68/71 56/71/71 66/72/71 64/69/71 
f 56/71/71 57/73/71 67/74/71 66/72/71 
f 57/73/71 58/75/71 68/76/71 67/74/71 
f 58/75/71 59/77/71 69/78/71 68/76/71 
f 59/77/71 60/79/71 70/80/71 69/78/71 
f 60/79/71 61/81/72 71/82/72 70/80/71 
f 61/81/72 62/83/73 72/84/73 71/82/72 
f 62/83/73 63/85/73 73/86/73 72/84/73 
f 63/85/73 55/67/70 65/70/70 73/86/73 
f 65/70/61 64/69/61 74/87/61 75/88/61 
f 64/69/36 66/72/36 76/89/36 74/87/36 
f 66/72/74 67/74/74 77/90/74 76/89/74 
f 67/74/75 68/76/75 78/91/75 77/90/75 
f 68/76/76 69/78/76 79/92/76 78/91/76 
f 69/78/77 70/80/77 80/93/77 79/92/77 
f 70/80/78 71/82/78 81/94/78 80/93/78 
f 71/82/79 72/84/79 82/95/79 81/94/79 
f 72/84/80 73/86/80 83/96/80 82/95/80 
f 73/86/81 65/70/81 75/88/81 83/96/81 
# 50 polygons

#
# object iskra2
#

v  -0.0744 -0.0465 0.2429
v  -0.0745 -0.0529 0.2589
v  -0.0805 -0.0444 0.2589
v  -0.0701 -0.0435 0.2589
v  -0.0744 -0.0465 0.2748
# 5 vertices

vn -0.8806 -0.4739 -0.0000
vn 0.4656 -0.3643 0.8065
vn 0.4656 -0.3643 -0.8065
vn -0.8806 0.4739 -0.0000
vn 0.4656 0.3643 0.8065
vn 0.4656 0.3643 -0.8065
# 6 vertex normals

vt 0.0646 0.7138 0.0000
vt 0.0955 0.8472 0.0000
vt 0.0076 0.8472 0.0000
vt 0.1136 0.7116 0.0000
vt 0.1708 0.8461 0.0000
vt 0.0947 0.8461 0.0000
vt 0.1679 0.7103 0.0000
vt 0.2474 0.8478 0.0000
vt 0.1713 0.8478 0.0000
vt 0.0748 0.9827 0.0000
vt 0.1146 0.9836 0.0000
vt 0.1810 0.9823 0.0000
# 12 texture coords

o iskra2
g iskra2
usemtl torch_mat
s off
f 84/97/82 85/98/82 86/99/82 
f 84/100/83 87/101/83 85/102/83 
f 84/103/84 86/104/84 87/105/84 
f 86/99/85 85/98/85 88/106/85 
f 85/102/86 87/101/86 88/107/86 
f 87/105/87 86/104/87 88/108/87 
# 0 polygons - 6 triangles

#
# object iskra3
#

v  -0.0926 -0.0256 0.2363
v  -0.0883 -0.0245 0.2503
v  -0.0930 -0.0300 0.2503
v  -0.0954 -0.0232 0.2503
v  -0.0926 -0.0256 0.2621
# 5 vertices

vn -0.9209 -0.3899 -0.0000
vn 0.4779 -0.2942 0.8277
vn 0.4779 -0.2942 -0.8277
vn -0.8946 0.4468 -0.0000
vn 0.4700 0.3413 0.8140
vn 0.4700 0.3413 -0.8140
# 6 vertex normals

vt 0.0646 0.7138 0.0000
vt 0.0955 0.8472 0.0000
vt 0.0076 0.8472 0.0000
vt 0.1136 0.7116 0.0000
vt 0.1708 0.8461 0.0000
vt 0.0947 0.8461 0.0000
vt 0.1679 0.7103 0.0000
vt 0.2474 0.8478 0.0000
vt 0.1713 0.8478 0.0000
vt 0.0748 0.9827 0.0000
vt 0.1146 0.9836 0.0000
vt 0.1810 0.9823 0.0000
# 12 texture coords

o iskra3
g iskra3
usemtl torch_mat
s off
f 89/109/88 90/110/88 91/111/88 
f 89/112/89 92/113/89 90/114/89 
f 89/115/90 91/116/90 92/117/90 
f 91/111/91 90/110/91 93/118/91 
f 90/114/92 92/113/92 93/119/92 
f 92/117/93 91/116/93 93/120/93 
# 0 polygons - 6 triangles

